uart_tb.vcd
$date
	Thu Apr 02 15:53:33 2026
$end
$version
	ModelSim Version 2020.1
$end
$timescale
	1ps
$end

$scope module UART_tb $end
$var reg 1 ! clk $end
$var reg 1 " rst_n $end
$var reg 1 # req $end
$var reg 32 $ data [31:0] $end
$var reg 4 % addr [3:0] $end
$var wire 1 & tx $end
$var wire 1 ' ack $end
$var wire 1 ( data_out [7] $end
$var wire 1 ) data_out [6] $end
$var wire 1 * data_out [5] $end
$var wire 1 + data_out [4] $end
$var wire 1 , data_out [3] $end
$var wire 1 - data_out [2] $end
$var wire 1 . data_out [1] $end
$var wire 1 / data_out [0] $end
$var wire 1 0 data_ready $end

$scope task write_reg $end
$var reg 4 1 a [3:0] $end
$var reg 32 2 d [31:0] $end
$upscope $end

$scope task capture_and_check $end
$var reg 64 3 expected [63:0] $end
$var integer 32 4 num_bits $end
$var reg 1 5 lsb_first $end
$var integer 32 6 i $end
$var reg 64 7 captured [63:0] $end
$var reg 64 8 mask [63:0] $end
$upscope $end

$scope module u_dut $end
$var parameter 32 9 IDLE $end
$var parameter 32 : START $end
$var parameter 32 ; STOP $end
$var wire 1 < clk_i $end
$var wire 1 = rst_n_i $end
$var wire 1 > req_i $end
$var wire 1 ? data_i [31] $end
$var wire 1 @ data_i [30] $end
$var wire 1 A data_i [29] $end
$var wire 1 B data_i [28] $end
$var wire 1 C data_i [27] $end
$var wire 1 D data_i [26] $end
$var wire 1 E data_i [25] $end
$var wire 1 F data_i [24] $end
$var wire 1 G data_i [23] $end
$var wire 1 H data_i [22] $end
$var wire 1 I data_i [21] $end
$var wire 1 J data_i [20] $end
$var wire 1 K data_i [19] $end
$var wire 1 L data_i [18] $end
$var wire 1 M data_i [17] $end
$var wire 1 N data_i [16] $end
$var wire 1 O data_i [15] $end
$var wire 1 P data_i [14] $end
$var wire 1 Q data_i [13] $end
$var wire 1 R data_i [12] $end
$var wire 1 S data_i [11] $end
$var wire 1 T data_i [10] $end
$var wire 1 U data_i [9] $end
$var wire 1 V data_i [8] $end
$var wire 1 W data_i [7] $end
$var wire 1 X data_i [6] $end
$var wire 1 Y data_i [5] $end
$var wire 1 Z data_i [4] $end
$var wire 1 [ data_i [3] $end
$var wire 1 \ data_i [2] $end
$var wire 1 ] data_i [1] $end
$var wire 1 ^ data_i [0] $end
$var wire 1 _ addr_i [3] $end
$var wire 1 ` addr_i [2] $end
$var wire 1 a addr_i [1] $end
$var wire 1 b addr_i [0] $end
$var reg 1 c tx_o $end
$var reg 1 d ack_o $end
$var reg 8 e data_o [7:0] $end
$var reg 1 f data_ready_o $end
$var reg 7 g NUMBER_OF_BITS [6:0] $end
$var wire 1 h shift_register_wire $end
$var wire 1 i shift_enable $end
$var reg 3 j cfg [2:0] $end
$var reg 3 k baud [2:0] $end
$var reg 64 l tx_data [63:0] $end
$var reg 7 m cnt [6:0] $end
$var reg 14 n div_cnt [13:0] $end
$var reg 64 o shift_register [63:0] $end
$var wire 1 p shift_out $end
$var wire 1 q transmiting_flag $end
$upscope $end
$upscope $end
$enddefinitions $end
#0
$dumpvars
0!
0"
0#
b0 $
b0 %
1c
0d
bx e
xf
b100000 g
b100 j
b110 k
bx l
b0 m
b0 n
b0 o
bx 1
bx 2
bx 3
x5
bx 7
bx 8
b1 9
b0 :
b1 ;
bx 4
bx 6
1&
0'
x/
x.
x-
x,
x+
x*
x)
x(
x0
0h
0i
zp
zq
0<
0=
0>
0^
0]
0\
0[
0Z
0Y
0X
0W
0V
0U
0T
0S
0R
0Q
0P
0O
0N
0M
0L
0K
0J
0I
0H
0G
0F
0E
0D
0C
0B
0A
0@
0?
0b
0a
0`
0_
$end
#5000
1!
1<
#10000
0!
0<
#15000
1!
1<
#20000
0!
0<
#25000
1!
1<
#30000
0!
0<
#35000
1!
1<
#40000
0!
0<
#45000
1!
1<
#50000
0!
0<
#55000
1!
1<
#60000
0!
0<
#65000
1!
1<
#70000
0!
0<
#75000
1!
1<
#80000
0!
0<
#85000
1!
1<
#90000
0!
0<
#95000
1!
1<
1"
1=
#100000
0!
0<
#105000
1!
1<
#110000
0!
0<
#115000
1!
1<
#120000
0!
0<
#125000
1!
1<
#130000
0!
0<
#135000
1!
1<
#140000
0!
0<
#145000
1!
1<
b10 1
b11011110101011011011111011101111 2
#150000
0!
0<
#155000
1!
1<
b10 %
b11011110101011011011111011101111 $
1#
1^
1]
1\
1[
1Y
1X
1W
1U
1T
1S
1R
1Q
1O
1N
1L
1K
1I
1G
1E
1D
1C
1B
1@
1?
1a
1>
#160000
0!
0<
#165000
1!
1<
1d
1'
#170000
0!
0<
#175000
1!
1<
b11011110101011011011111011101111 3
b100000 4
15
b0 7
b100010 m
b110 n
b11011110101011011011111011101111 o
0#
1h
0>
#180000
0!
0<
#185000
1!
1<
b101 n
0d
0c
0'
0&
#190000
0!
0<
#195000
1!
1<
b100 n
#200000
0!
0<
#205000
1!
1<
b11 n
#210000
0!
0<
#215000
1!
1<
b0 6
b10 n
#220000
0!
0<
#225000
1!
1<
b1 n
#230000
0!
0<
#235000
1!
1<
b0 n
#240000
0!
0<
#245000
1!
1<
b100001 m
b110 n
#250000
0!
0<
#255000
1!
1<
b101 n
1c
1&
#260000
0!
0<
#265000
1!
1<
b100 n
#270000
0!
0<
#275000
1!
1<
b11 n
#280000
0!
0<
#285000
1!
1<
b1 7
b1 6
b10 n
#290000
0!
0<
#295000
1!
1<
b1 n
#300000
0!
0<
#305000
1!
1<
b0 n
1i
#310000
0!
0<
#315000
1!
1<
b100000 m
b110 n
b1101111010101101101111101110111 o
0i
#320000
0!
0<
#325000
1!
1<
b101 n
#330000
0!
0<
#335000
1!
1<
b100 n
#340000
0!
0<
#345000
1!
1<
b11 n
#350000
0!
0<
#355000
1!
1<
b11 7
b10 6
b10 n
#360000
0!
0<
#365000
1!
1<
b1 n
#370000
0!
0<
#375000
1!
1<
b0 n
1i
#380000
0!
0<
#385000
1!
1<
b11111 m
b110 n
b110111101010110110111110111011 o
0i
#390000
0!
0<
#395000
1!
1<
b101 n
#400000
0!
0<
#405000
1!
1<
b100 n
#410000
0!
0<
#415000
1!
1<
b11 n
#420000
0!
0<
#425000
1!
1<
b111 7
b11 6
b10 n
#430000
0!
0<
#435000
1!
1<
b1 n
#440000
0!
0<
#445000
1!
1<
b0 n
1i
#450000
0!
0<
#455000
1!
1<
b11110 m
b110 n
b11011110101011011011111011101 o
0i
#460000
0!
0<
#465000
1!
1<
b101 n
#470000
0!
0<
#475000
1!
1<
b100 n
#480000
0!
0<
#485000
1!
1<
b11 n
#490000
0!
0<
#495000
1!
1<
b1111 7
b100 6
b10 n
#500000
0!
0<
#505000
1!
1<
b1 n
#510000
0!
0<
#515000
1!
1<
b0 n
1i
#520000
0!
0<
#525000
1!
1<
b11101 m
b110 n
b1101111010101101101111101110 o
0i
0h
#530000
0!
0<
#535000
1!
1<
b101 n
0c
0&
#540000
0!
0<
#545000
1!
1<
b100 n
#550000
0!
0<
#555000
1!
1<
b11 n
#560000
0!
0<
#565000
1!
1<
b101 6
b10 n
#570000
0!
0<
#575000
1!
1<
b1 n
#580000
0!
0<
#585000
1!
1<
b0 n
1i
#590000
0!
0<
#595000
1!
1<
b11100 m
b110 n
b110111101010110110111110111 o
0i
1h
#600000
0!
0<
#605000
1!
1<
b101 n
1c
1&
#610000
0!
0<
#615000
1!
1<
b100 n
#620000
0!
0<
#625000
1!
1<
b11 n
#630000
0!
0<
#635000
1!
1<
b101111 7
b110 6
b10 n
#640000
0!
0<
#645000
1!
1<
b1 n
#650000
0!
0<
#655000
1!
1<
b0 n
1i
#660000
0!
0<
#665000
1!
1<
b11011 m
b110 n
b11011110101011011011111011 o
0i
#670000
0!
0<
#675000
1!
1<
b101 n
#680000
0!
0<
#685000
1!
1<
b100 n
#690000
0!
0<
#695000
1!
1<
b11 n
#700000
0!
0<
#705000
1!
1<
b1101111 7
b111 6
b10 n
#710000
0!
0<
#715000
1!
1<
b1 n
#720000
0!
0<
#725000
1!
1<
b0 n
1i
#730000
0!
0<
#735000
1!
1<
b11010 m
b110 n
b1101111010101101101111101 o
0i
#740000
0!
0<
#745000
1!
1<
b101 n
#750000
0!
0<
#755000
1!
1<
b100 n
#760000
0!
0<
#765000
1!
1<
b11 n
#770000
0!
0<
#775000
1!
1<
b11101111 7
b1000 6
b10 n
#780000
0!
0<
#785000
1!
1<
b1 n
#790000
0!
0<
#795000
1!
1<
b0 n
1i
#800000
0!
0<
#805000
1!
1<
b11001 m
b110 n
b110111101010110110111110 o
0i
0h
#810000
0!
0<
#815000
1!
1<
b101 n
0c
0&
#820000
0!
0<
#825000
1!
1<
b100 n
#830000
0!
0<
#835000
1!
1<
b11 n
#840000
0!
0<
#845000
1!
1<
b1001 6
b10 n
#850000
0!
0<
#855000
1!
1<
b1 n
#860000
0!
0<
#865000
1!
1<
b0 n
1i
#870000
0!
0<
#875000
1!
1<
b11000 m
b110 n
b11011110101011011011111 o
0i
1h
#880000
0!
0<
#885000
1!
1<
b101 n
1c
1&
#890000
0!
0<
#895000
1!
1<
b100 n
#900000
0!
0<
#905000
1!
1<
b11 n
#910000
0!
0<
#915000
1!
1<
b1011101111 7
b1010 6
b10 n
#920000
0!
0<
#925000
1!
1<
b1 n
#930000
0!
0<
#935000
1!
1<
b0 n
1i
#940000
0!
0<
#945000
1!
1<
b10111 m
b110 n
b1101111010101101101111 o
0i
#950000
0!
0<
#955000
1!
1<
b101 n
#960000
0!
0<
#965000
1!
1<
b100 n
#970000
0!
0<
#975000
1!
1<
b11 n
#980000
0!
0<
#985000
1!
1<
b11011101111 7
b1011 6
b10 n
#990000
0!
0<
#995000
1!
1<
b1 n
#1000000
0!
0<
#1005000
1!
1<
b0 n
1i
#1010000
0!
0<
#1015000
1!
1<
b10110 m
b110 n
b110111101010110110111 o
0i
#1020000
0!
0<
#1025000
1!
1<
b101 n
#1030000
0!
0<
#1035000
1!
1<
b100 n
#1040000
0!
0<
#1045000
1!
1<
b11 n
#1050000
0!
0<
#1055000
1!
1<
b111011101111 7
b1100 6
b10 n
#1060000
0!
0<
#1065000
1!
1<
b1 n
#1070000
0!
0<
#1075000
1!
1<
b0 n
1i
#1080000
0!
0<
#1085000
1!
1<
b10101 m
b110 n
b11011110101011011011 o
0i
#1090000
0!
0<
#1095000
1!
1<
b101 n
#1100000
0!
0<
#1105000
1!
1<
b100 n
#1110000
0!
0<
#1115000
1!
1<
b11 n
#1120000
0!
0<
#1125000
1!
1<
b1111011101111 7
b1101 6
b10 n
#1130000
0!
0<
#1135000
1!
1<
b1 n
#1140000
0!
0<
#1145000
1!
1<
b0 n
1i
#1150000
0!
0<
#1155000
1!
1<
b10100 m
b110 n
b1101111010101101101 o
0i
#1160000
0!
0<
#1165000
1!
1<
b101 n
#1170000
0!
0<
#1175000
1!
1<
b100 n
#1180000
0!
0<
#1185000
1!
1<
b11 n
#1190000
0!
0<
#1195000
1!
1<
b11111011101111 7
b1110 6
b10 n
#1200000
0!
0<
#1205000
1!
1<
b1 n
#1210000
0!
0<
#1215000
1!
1<
b0 n
1i
#1220000
0!
0<
#1225000
1!
1<
b10011 m
b110 n
b110111101010110110 o
0i
0h
#1230000
0!
0<
#1235000
1!
1<
b101 n
0c
0&
#1240000
0!
0<
#1245000
1!
1<
b100 n
#1250000
0!
0<
#1255000
1!
1<
b11 n
#1260000
0!
0<
#1265000
1!
1<
b1111 6
b10 n
#1270000
0!
0<
#1275000
1!
1<
b1 n
#1280000
0!
0<
#1285000
1!
1<
b0 n
1i
#1290000
0!
0<
#1295000
1!
1<
b10010 m
b110 n
b11011110101011011 o
0i
1h
#1300000
0!
0<
#1305000
1!
1<
b101 n
1c
1&
#1310000
0!
0<
#1315000
1!
1<
b100 n
#1320000
0!
0<
#1325000
1!
1<
b11 n
#1330000
0!
0<
#1335000
1!
1<
b1011111011101111 7
b10000 6
b10 n
#1340000
0!
0<
#1345000
1!
1<
b1 n
#1350000
0!
0<
#1355000
1!
1<
b0 n
1i
#1360000
0!
0<
#1365000
1!
1<
b10001 m
b110 n
b1101111010101101 o
0i
#1370000
0!
0<
#1375000
1!
1<
b101 n
#1380000
0!
0<
#1385000
1!
1<
b100 n
#1390000
0!
0<
#1395000
1!
1<
b11 n
#1400000
0!
0<
#1405000
1!
1<
b11011111011101111 7
b10001 6
b10 n
#1410000
0!
0<
#1415000
1!
1<
b1 n
#1420000
0!
0<
#1425000
1!
1<
b0 n
1i
#1430000
0!
0<
#1435000
1!
1<
b10000 m
b110 n
b110111101010110 o
0i
0h
#1440000
0!
0<
#1445000
1!
1<
b101 n
0c
0&
#1450000
0!
0<
#1455000
1!
1<
b100 n
#1460000
0!
0<
#1465000
1!
1<
b11 n
#1470000
0!
0<
#1475000
1!
1<
b10010 6
b10 n
#1480000
0!
0<
#1485000
1!
1<
b1 n
#1490000
0!
0<
#1495000
1!
1<
b0 n
1i
#1500000
0!
0<
#1505000
1!
1<
b1111 m
b110 n
b11011110101011 o
0i
1h
#1510000
0!
0<
#1515000
1!
1<
b101 n
1c
1&
#1520000
0!
0<
#1525000
1!
1<
b100 n
#1530000
0!
0<
#1535000
1!
1<
b11 n
#1540000
0!
0<
#1545000
1!
1<
b1011011111011101111 7
b10011 6
b10 n
#1550000
0!
0<
#1555000
1!
1<
b1 n
#1560000
0!
0<
#1565000
1!
1<
b0 n
1i
#1570000
0!
0<
#1575000
1!
1<
b1110 m
b110 n
b1101111010101 o
0i
#1580000
0!
0<
#1585000
1!
1<
b101 n
#1590000
0!
0<
#1595000
1!
1<
b100 n
#1600000
0!
0<
#1605000
1!
1<
b11 n
#1610000
0!
0<
#1615000
1!
1<
b11011011111011101111 7
b10100 6
b10 n
#1620000
0!
0<
#1625000
1!
1<
b1 n
#1630000
0!
0<
#1635000
1!
1<
b0 n
1i
#1640000
0!
0<
#1645000
1!
1<
b1101 m
b110 n
b110111101010 o
0i
0h
#1650000
0!
0<
#1655000
1!
1<
b101 n
0c
0&
#1660000
0!
0<
#1665000
1!
1<
b100 n
#1670000
0!
0<
#1675000
1!
1<
b11 n
#1680000
0!
0<
#1685000
1!
1<
b10101 6
b10 n
#1690000
0!
0<
#1695000
1!
1<
b1 n
#1700000
0!
0<
#1705000
1!
1<
b0 n
1i
#1710000
0!
0<
#1715000
1!
1<
b1100 m
b110 n
b11011110101 o
0i
1h
#1720000
0!
0<
#1725000
1!
1<
b101 n
1c
1&
#1730000
0!
0<
#1735000
1!
1<
b100 n
#1740000
0!
0<
#1745000
1!
1<
b11 n
#1750000
0!
0<
#1755000
1!
1<
b1011011011111011101111 7
b10110 6
b10 n
#1760000
0!
0<
#1765000
1!
1<
b1 n
#1770000
0!
0<
#1775000
1!
1<
b0 n
1i
#1780000
0!
0<
#1785000
1!
1<
b1011 m
b110 n
b1101111010 o
0i
0h
#1790000
0!
0<
#1795000
1!
1<
b101 n
0c
0&
#1800000
0!
0<
#1805000
1!
1<
b100 n
#1810000
0!
0<
#1815000
1!
1<
b11 n
#1820000
0!
0<
#1825000
1!
1<
b10111 6
b10 n
#1830000
0!
0<
#1835000
1!
1<
b1 n
#1840000
0!
0<
#1845000
1!
1<
b0 n
1i
#1850000
0!
0<
#1855000
1!
1<
b1010 m
b110 n
b110111101 o
0i
1h
#1860000
0!
0<
#1865000
1!
1<
b101 n
1c
1&
#1870000
0!
0<
#1875000
1!
1<
b100 n
#1880000
0!
0<
#1885000
1!
1<
b11 n
#1890000
0!
0<
#1895000
1!
1<
b101011011011111011101111 7
b11000 6
b10 n
#1900000
0!
0<
#1905000
1!
1<
b1 n
#1910000
0!
0<
#1915000
1!
1<
b0 n
1i
#1920000
0!
0<
#1925000
1!
1<
b1001 m
b110 n
b11011110 o
0i
0h
#1930000
0!
0<
#1935000
1!
1<
b101 n
0c
0&
#1940000
0!
0<
#1945000
1!
1<
b100 n
#1950000
0!
0<
#1955000
1!
1<
b11 n
#1960000
0!
0<
#1965000
1!
1<
b11001 6
b10 n
#1970000
0!
0<
#1975000
1!
1<
b1 n
#1980000
0!
0<
#1985000
1!
1<
b0 n
1i
#1990000
0!
0<
#1995000
1!
1<
b1000 m
b110 n
b1101111 o
0i
1h
#2000000
0!
0<
#2005000
1!
1<
b101 n
1c
1&
#2010000
0!
0<
#2015000
1!
1<
b100 n
#2020000
0!
0<
#2025000
1!
1<
b11 n
#2030000
0!
0<
#2035000
1!
1<
b10101011011011111011101111 7
b11010 6
b10 n
#2040000
0!
0<
#2045000
1!
1<
b1 n
#2050000
0!
0<
#2055000
1!
1<
b0 n
1i
#2060000
0!
0<
#2065000
1!
1<
b111 m
b110 n
b110111 o
0i
#2070000
0!
0<
#2075000
1!
1<
b101 n
#2080000
0!
0<
#2085000
1!
1<
b100 n
#2090000
0!
0<
#2095000
1!
1<
b11 n
#2100000
0!
0<
#2105000
1!
1<
b110101011011011111011101111 7
b11011 6
b10 n
#2110000
0!
0<
#2115000
1!
1<
b1 n
#2120000
0!
0<
#2125000
1!
1<
b0 n
1i
#2130000
0!
0<
#2135000
1!
1<
b110 m
b110 n
b11011 o
0i
#2140000
0!
0<
#2145000
1!
1<
b101 n
#2150000
0!
0<
#2155000
1!
1<
b100 n
#2160000
0!
0<
#2165000
1!
1<
b11 n
#2170000
0!
0<
#2175000
1!
1<
b1110101011011011111011101111 7
b11100 6
b10 n
#2180000
0!
0<
#2185000
1!
1<
b1 n
#2190000
0!
0<
#2195000
1!
1<
b0 n
1i
#2200000
0!
0<
#2205000
1!
1<
b101 m
b110 n
b1101 o
0i
#2210000
0!
0<
#2215000
1!
1<
b101 n
#2220000
0!
0<
#2225000
1!
1<
b100 n
#2230000
0!
0<
#2235000
1!
1<
b11 n
#2240000
0!
0<
#2245000
1!
1<
b11110101011011011111011101111 7
b11101 6
b10 n
#2250000
0!
0<
#2255000
1!
1<
b1 n
#2260000
0!
0<
#2265000
1!
1<
b0 n
1i
#2270000
0!
0<
#2275000
1!
1<
b100 m
b110 n
b110 o
0i
0h
#2280000
0!
0<
#2285000
1!
1<
b101 n
0c
0&
#2290000
0!
0<
#2295000
1!
1<
b100 n
#2300000
0!
0<
#2305000
1!
1<
b11 n
#2310000
0!
0<
#2315000
1!
1<
b11110 6
b10 n
#2320000
0!
0<
#2325000
1!
1<
b1 n
#2330000
0!
0<
#2335000
1!
1<
b0 n
1i
#2340000
0!
0<
#2345000
1!
1<
b11 m
b110 n
b11 o
0i
1h
#2350000
0!
0<
#2355000
1!
1<
b101 n
1c
1&
#2360000
0!
0<
#2365000
1!
1<
b100 n
#2370000
0!
0<
#2375000
1!
1<
b11 n
#2380000
0!
0<
#2385000
1!
1<
b1011110101011011011111011101111 7
b11111 6
b10 n
#2390000
0!
0<
#2395000
1!
1<
b1 n
#2400000
0!
0<
#2405000
1!
1<
b0 n
1i
#2410000
0!
0<
#2415000
1!
1<
b10 m
b110 n
b1 o
0i
#2420000
0!
0<
#2425000
1!
1<
b101 n
#2430000
0!
0<
#2435000
1!
1<
b100 n
#2440000
0!
0<
#2445000
1!
1<
b11 n
#2450000
0!
0<
#2455000
1!
1<
b11011110101011011011111011101111 7
b100000 6
b10 n
#2460000
0!
0<
#2465000
1!
1<
b1 n
#2470000
0!
0<
#2475000
1!
1<
b0 n
1i
#2480000
0!
0<
#2485000
1!
1<
b1 m
b110 n
b0 o
0i
0h
#2490000
0!
0<
#2495000
1!
1<
b101 n
#2500000
0!
0<
#2505000
1!
1<
b100 n
#2510000
0!
0<
#2515000
1!
1<
b11 n
#2520000
0!
0<
#2525000
1!
1<
b11111111111111111111111111111111 8
b10 n
#2530000
0!
0<
#2535000
1!
1<
b1 n
#2540000
0!
0<
#2545000
1!
1<
b0 n
#2550000
0!
0<
#2555000
1!
1<
b0 m
b110 n
#2560000
0!
0<
#2565000
1!
1<
b101 n
#2570000
0!
0<
#2575000
1!
1<
b100 n
#2580000
0!
0<
#2585000
1!
1<
b11 n
#2590000
0!
0<
#2595000
1!
1<
b10 n
#2600000
0!
0<
#2605000
1!
1<
b1 n
#2610000
0!
0<
#2615000
1!
1<
b0 n
